{
  "requestHandler": {
    "/smplGeoclust": {
      "name": "/smplGeoclust",
      "class": "solr.SearchHandler",
      "defaults": {
        "echoParams": "none",
        "df": "text"
      },
      "invariants": {
        "wt": "json",
        "json.nl": "map",
        "rows": 0,
        "json": "{\"filter\":[\"bundle:pop_sample\",\"has_geodata:true\",\"-sample_size_i:0\",\"${bbox}\"],\"facet\":{\"geo\":{\"type\":\"terms\",\"field\":\"${geo:geohash_2}\",\"limit\":2000,\"mincount\":1,\"sort\":{\"count\":\"desc\"},\"facet\":{\"ltAvg\":\"avg(geo_coords_ll_0_coordinate)\",\"ltMin\":\"min(geo_coords_ll_0_coordinate)\",\"ltMax\":\"max(geo_coords_ll_0_coordinate)\",\"lnAvg\":\"avg(geo_coords_ll_1_coordinate)\",\"lnMin\":\"min(geo_coords_ll_1_coordinate)\",\"lnMax\":\"max(geo_coords_ll_1_coordinate)\",atomicCount:\"unique(${geomax:geohash_7})\",\"term\":{\"type\":\"terms\",\"field\":\"${term:species_category}\",\"limit\":2000,\"mincount\":1}}}}}"
      }
    },
    "/irGeoclust": {
      "name": "/irGeoclust",
      "class": "solr.SearchHandler",
      "defaults": {
        "echoParams": "none",
        "df": "text"
      },
      "invariants": {
        "wt": "json",
        "json.nl": "map",
        "rows": 0,
        "json": "{\"filter\":[\"bundle:pop_sample_phenotype\",\"phenotype_type_s:insecticide*\",\"has_geodata:true\",\"${bbox}\"],\"facet\":{\"geo\":{\"type\":\"terms\",\"field\":\"${geo:geohash_2}\",\"limit\":2000,\"mincount\":1,\"sort\":{\"count\":\"desc\"},\"facet\":{\"ltAvg\":\"avg(geo_coords_ll_0_coordinate)\",\"ltMin\":\"min(geo_coords_ll_0_coordinate)\",\"ltMax\":\"max(geo_coords_ll_0_coordinate)\",\"lnAvg\":\"avg(geo_coords_ll_1_coordinate)\",\"lnMin\":\"min(geo_coords_ll_1_coordinate)\",\"lnMax\":\"max(geo_coords_ll_1_coordinate)\",\"irAvg\":\"avg(phenotype_rescaled_value_f)\",atomicCount:\"unique(${geomax:geohash_7})\",\"term\":{\"type\":\"terms\",\"field\":\"${term}\",\"limit\":2000,\"mincount\":1}}}}}"
      }
    },
    "/abndGeoclust": {
      "name": "/abndGeoclust",
      "class": "solr.SearchHandler",
      "defaults": {
        "echoParams": "none",
        "df": "text"
      },
      "invariants": {
        "wt": "json",
        "json.nl": "map",
        "rows": 0,
        "facet.threads": 2,
        "json": "{filter:[\"bundle:pop_sample\",\"has_abundance_data_b:true\",\"has_geodata:true\",\"${bbox}\"],facet:{sumSmp:\"sum(sample_size_i)\",geo:{type:terms,field:${geo:geohash_2},limit:2000,mincount:1,sort:{count:desc},facet:{ltAvg:\"avg(geo_coords_ll_0_coordinate)\",ltMin:\"min(geo_coords_ll_0_coordinate)\",ltMax:\"max(geo_coords_ll_0_coordinate)\",lnAvg:\"avg(geo_coords_ll_1_coordinate)\",lnMin:\"min(geo_coords_ll_1_coordinate)\",lnMax:\"max(geo_coords_ll_1_coordinate)\",sumSmp:\"sum(sample_size_i)\",atomicCount:\"unique(${geomax:geohash_7})\",term:{type:terms,field:${term:species_category},limit:2000,mincount:1,sort:{count:desc},facet:{sumSmp:\"sum(sample_size_i)\"}}}}}}"
      }
    },
    "/abndPalette": {
      "name": "/abndPalette",
      "class": "solr.SearchHandler",
      "defaults": {
        "echoParams": "none",
        "df": "text"
      },
      "invariants": {
        "wt": "json",
        "json.nl": "map",
        "rows": 0,
        "json": "{filter:[\"bundle:pop_sample\",\"has_abundance_data_b:true\",\"has_geodata:true\"],facet:{geo:{type:terms,field:\"${geo:geohash_2}\",limit:2000,mincount:1,sort:{count:desc},facet:{maxAbnd:\"sum(div(sample_size_i,collection_duration_days_i))\",terms:{type:terms,field:\"${term:species_category}\",limit:2000,mincount:1,sort:{count:desc}}}}}}"
      }
    },
    "/abndMarkerYearRange": {
      "name": "/abndMarkerYearRange",
      "class": "solr.SearchHandler",
      "defaults": {
        "echoParams": "none",
        "df": "text"
      },
      "invariants": {
        "wt": "json",
        "json.nl": "map",
        "rows": 0,
        "stats": "true",
        "stats.field": "collection_date",
        "facet.sort": "index",
        "facet.limit": "-1",
        "facet.mincount": "1",
        "facet": "true",
        "json": "{filter:[\"bundle:pop_sample\",\"has_abundance_data_b:true\",\"has_geodata:true\"],\"facet\":{\"term\":{\"type\":\"terms\",\"limit\":-1,\"field\":\"${term:species_category}\"}}}",
        "json.facet": "{\"collection_resolution\":{\"terms\":\"collection_date_resolution_s\"}}"
      }
    },
    "/projectsCoordinates": {
      "name": "/projectsCoordinates",
      "class": "solr.SearchHandler",
      "defaults": {
        "echoParams": "none",
        "df": "text"
      },
      "invariants": {
        "wt": "json",
        "json.nl": "map",
        "rows": 0,
        "facet.sort": "index",
        "facet.limit": "-1",
        "facet.mincount": "1",
        "facet": "true",
        "json": "{query:\"*:*\",filter:[\"bundle:${bundle:pop_sample}\",\"has_geodata:true\",\"projects_category:${projects:*}\",\"accession:${accession:*}\",\"collection_assay_id_s:${collection_assay_id:*}\"]}",
        "json.facet": "{\"ltAvg\":\"avg(geo_coords_ll_0_coordinate)\",\"lnAvg\":\"avg(geo_coords_ll_1_coordinate)\"}"
      }
    },
    "/abndGraphdata": {
      "name": "/abndGraphdata",
      "class": "solr.SearchHandler",
      "defaults": {
        "echoParams": "none",
        "df": "text"
      },
    "invariants": {
        "wt": "json",
        "json.nl": "map",
        "rows": 0,
        "facet": "true",
        "json": "{\"filter\":[\"bundle:pop_sample\",\"has_abundance_data_b:true\",\"has_geodata:true\",\"${date_resolution}:*\"],\"facet\":{\"term\":{\"type\":\"terms\",\"limit\":${termLimit:-1},\"sort\":\"sum_quantity desc\",\"field\":\"${term:species_category}\",\"facet\":{\"sum_quantity\":\"sum(div(sample_size_i, collection_duration_days_i))\",\"collection_dates\":{\"type\":\"terms\",\"limit\":2000,\"sort\":\"index\",\"field\":\"${date_resolution:collection_day_s}\",\"facet\":{\"num_collections\":\"hll(collection_assay_id_s)\",\"sum_abundance\":\"sum(div(sample_size_i, collection_duration_days_i))\"}}}}}}"
      }
    },
    "/smplPalette": {
      "name": "/smplPalette",
      "class": "solr.SearchHandler",
      "defaults": {
        "echoParams": "none",
        "df": "text"
      },
      "invariants": {
        "wt": "json",
        "json.nl": "map",
        "rows": 0,
        "json": "{\"filter\":[\"bundle:pop_sample\",\"has_geodata:true\",\"-sample_size_i:0\"],\"facet\":{\"geo\":{\"type\":\"terms\",\"field\":\"${geo:geohash_2}\",\"limit\":2000,\"mincount\":1,\"sort\":{\"count\":\"desc\"},\"facet\":{\"terms\":{\"type\":\"terms\",\"field\":\"${term:species_category}\",\"limit\":2000,\"mincount\":1,\"sort\":{\"count\":\"desc\"}}}}}}"
      }
    },
    "/irPalette": {
      "name": "/irPalette",
      "class": "solr.SearchHandler",
      "defaults": {
        "echoParams": "none",
        "df": "text"
      },
      "invariants": {
        "wt": "json",
        "json.nl": "map",
        "rows": 0,
        "json": "{\"filter\":[\"bundle:pop_sample_phenotype\",\"phenotype_type_s:insecticide*resistance\",\"has_geodata:true\"],\"facet\":{\"geo\":{\"type\":\"terms\",\"field\":\"${geo:geohash_2}\",\"limit\":2000,\"mincount\":1,\"sort\":{\"count\":\"desc\"},\"facet\":{\"terms\":{\"type\":\"terms\",\"field\":\"${term:species_category}\",\"limit\":2000,\"mincount\":1,\"sort\":{\"count\":\"desc\"}}}}}}"
      }
    },
    "/abndExport": {
      "name": "/abndExport",
      "class": "solr.SearchHandler",
      "defaults": {
        "echoParams": "none",
        "fl": "exp_sample_id_s,exp_bundle_name_s,exp_species_s,exp_sample_type_s,exp_label_s,exp_collection_assay_id_s,exp_collection_date_range_ss,exp_collection_protocols_ss,exp_projects_ss,exp_geo_coords_s,exp_geolocations_ss,exp_protocols_ss,exp_sample_size_i,exp_collection_duration_days_i,exp_tags_ss,exp_attractants_ss,exp_sex_s,exp_dev_stages_s,exp_licenses_ss,exp_citations_ss"
      },
      "invariants": {
        "rq": "{!xport}",
        "wt": "xsort",
        "distrib": "false"
      },
      "appends": {
        "json": "{filter:[\"bundle:pop_sample\",\"has_geodata:true\",\"has_abundance_data_b:true\",\"${zeroFilter:-sample_size_i:0}\"]}"
      },
      "components": [ "query" ]
    },
    "/abndTable": {
      "name": "/abndTable",
      "class": "solr.SearchHandler",
      "defaults": {
        "echoParams": "none",
        "df": "text",
        "rows": 20
      },
      "invariants": {
        "wt": "json",
        "json.nl": "map",
        "fl": "accession,bundle_name,sample_type,url,geolocations,geo_coords,protocols,species_category,collection_protocols,attractants_ss,collection_date,collection_date_range,projects,sample_size_i,collection_duration_days_i,sex_s,dev_stages_ss,geolocation_provenance_s,geolocation_precision_s",
        "json": "{\"filter\":[\"bundle:pop_sample\",\"has_geodata:true\",\"has_abundance_data_b:true\",\"${zeroFilter:sample_size_i:*}\"]}"
      }
    },
    "/genoGeoclust": {
      "name": "/genoGeoclust",
      "class": "solr.SearchHandler",
      "defaults": {
        "echoParams": "none",
        "df": "text"
      },
      "invariants": {
        "wt": "json",
        "json.nl": "map",
        "rows": 0,
        "json": "{\"filter\":[\"bundle:pop_sample_genotype\",\"has_geodata:true\",\"-sample_size_i:0\",\"sample_size_i:*\",\"genotype_type_s:\\\"mutated protein\\\"\",\"genotype_cvterms:variant_frequency\",\"genotype_mutated_protein_unit_s:percent\",\"${bbox}\"],\"facet\":{\"alleleCount\":\"sum(mul(sample_size_i,div(genotype_mutated_protein_value_f,50)))\",\"geo\":{\"type\":\"terms\",\"field\":\"${geo:geohash_2}\",\"limit\":-1,\"mincount\":1,\"sort\":{\"count\":\"desc\"},\"facet\":{\"ltAvg\":\"avg(geo_coords_ll_0_coordinate)\",\"ltMin\":\"min(geo_coords_ll_0_coordinate)\",\"ltMax\":\"max(geo_coords_ll_0_coordinate)\",\"lnAvg\":\"avg(geo_coords_ll_1_coordinate)\",\"lnMin\":\"min(geo_coords_ll_1_coordinate)\",\"lnMax\":\"max(geo_coords_ll_1_coordinate)\",\"alleleCount\":\"sum(mul(sample_size_i,div(genotype_mutated_protein_value_f,50)))\",atomicCount:\"unique(${geomax:geohash_7})\",\"term\":{\"type\":\"terms\",\"field\":\"${term:genotype_name_s}\",\"limit\":-1,\"mincount\":1,\"facet\":{\"alleleCount\":\"sum(mul(sample_size_i,div(genotype_mutated_protein_value_f,50)))\"}}}}}}"
       }
    },
    "/genoPalette": {
      "name": "/genoPalette",
      "class": "solr.SearchHandler",
      "defaults": {
        "echoParams": "none",
        "df": "text"
      },
      "invariants": {
        "wt": "json",
        "json.nl": "map",
        "rows": 0,
	"json": "{\"filter\":[\"bundle:pop_sample_genotype\",\"has_geodata:true\",\"-sample_size_i:0\",\"sample_size_i:*\",\"genotype_cvterms:variant_frequency\",\"genotype_type_s:\\\"mutated protein\\\"\", \"genotype_mutated_protein_unit_s:percent\"],\"facet\":{\"geo\":{\"type\":\"terms\",\"field\":\"${geo:geohash_2}\",\"limit\":2000,\"mincount\":1,\"sort\":{\"count\":\"desc\"},\"facet\":{\"terms\":{\"type\":\"terms\",\"field\":\"${term:species_category}\",\"limit\":2000,\"mincount\":1,\"sort\":{\"count\":\"desc\"}}}}}}"

        //"json": "{filter:[\"bundle:pop_sample\",\"genotype_cvterms:variant_frequency\",\"-sample_size_i:0\",\"has_geodata:true\"],facet:{geo:{type:terms,field:\"${geo:geohash_2}\",limit:2000,mincount:1,sort:{count:desc},facet:{maxAbnd:\"sum(div(sample_size_i,collection_duration_days_i))\",terms:{type:terms,field:\"${term:species_category}\",limit:2000,mincount:1,sort:{count:desc}}}}}}"
      }
    },
    "/genoGraphdata": {
      "name": "/genoGraphdata",
      "class": "solr.SearchHandler",
      "defaults": {
        "echoParams": "none",
        "df": "text"
      },
    "invariants": {
        "wt": "json",
        "json.nl": "map",
        "rows": 1,
        "facet": "true",
        "fl": "project_titles_txt",
        "json": "{\"filter\":[\"bundle:pop_sample\",\"has_abundance_data_b:true\",\"has_geodata:true\",\"${project}\"],\"facet\":{\"term\":{\"type\":\"terms\",\"limit\":-1,\"field\":\"${term:species_category}\",\"facet\":{\"collection_dates\":{\"type\":\"terms\",\"limit\":-1,\"sort\":\"index\",\"field\":\"collection_date\",\"facet\":{\"collection\": {\"type\":\"terms\",\"field\":\"collection_assay_id_s\",\"facet\":{\"abnd\":\"sum(div(sample_size_i, collection_duration_days_i))\"}}}}}}}}"
      }
    },
    "/genoExport": {
      "name": "/genoExport",
      "class": "solr.SearchHandler",
      "defaults": {
        "fl": "exp_label_s,exp_sample_id_s,exp_assay_id_s,exp_description_s,exp_sample_type_s,exp_projects_ss,exp_species_s,exp_geo_coords_s,exp_geolocations_ss,exp_collection_protocols_ss,exp_collection_assay_id_s,exp_collection_date_range_ss,exp_protocols_ss,exp_citations_ss,exp_bundle_name_s,exp_phenotypes_ss,exp_annotations_ss,exp_genotype_type_s,exp_genotype_name_s,exp_genotype_inverted_allele_count_i,exp_genotype_microsatellite_length_i,exp_genotype_mutated_protein_value_f,exp_tags_ss,exp_attractants_ss,exp_sex_s,exp_dev_stages_s,exp_licenses_ss,exp_sample_size_i,exp_geolocation_provenance_s,exp_geolocation_precision_s"
      },
      "invariants": {
        "rq": "{!xport}",
        "wt": "xsort",
        "distrib": "false"
      },
      "appends": {
        "json": "{filter:[\"bundle:pop_sample_genotype\",\"has_geodata:true\",\"-sample_size_i:0\",\"sample_size_i:*\",\"genotype_type_s:\\\"mutated protein\\\"\",\"genotype_cvterms:variant_frequency\"]}"
      },
      "components": [ "query" ]
    },
    "/pathGeoclust": {
      "name": "/pathGeoclust",
      "class": "solr.SearchHandler",
      "defaults": {
        "echoParams": "none",
        "df": "text"
      },
      "invariants": {
        "wt": "json",
        "json.nl": "map",
        "rows": 0,
        "json": "{\"filter\":[\"bundle:pop_sample_phenotype\",\"phenotype_type_s:\\\"infection status\\\"\",\"infection_status_s:*\",\"has_geodata:true\",\"${bbox}\"],\"facet\":{\"geo\":{\"type\":\"terms\",\"field\":\"${geo:geohash_2}\",\"limit\":-1,\"mincount\":1,\"sort\":{\"count\":\"desc\"},\"facet\":{\"ltAvg\":\"avg(geo_coords_ll_0_coordinate)\",\"ltMin\":\"min(geo_coords_ll_0_coordinate)\",\"ltMax\":\"max(geo_coords_ll_0_coordinate)\",\"lnAvg\":\"avg(geo_coords_ll_1_coordinate)\",\"lnMin\":\"min(geo_coords_ll_1_coordinate)\",\"lnMax\":\"max(geo_coords_ll_1_coordinate)\",atomicCount:\"unique(${geomax:geohash_7})\",\"term\":{\"type\":\"terms\",\"field\":\"${term:infection_status_s}\",\"limit\": -1,\"mincount\":1}}}}}"
      }
    },
    "/pathPalette": {
      "name": "/pathPalette",
      "class": "solr.SearchHandler",
      "defaults": {
        "echoParams": "none",
        "df": "text"
      },
      "invariants": {
        "wt": "json",
        "json.nl": "map",
        "rows": 0,
        "json": "{\"filter\":[\"bundle:pop_sample_phenotype\",\"phenotype_type_s:\\\"infection status\\\"\",\"infection_status_s:*\",\"has_geodata:true\"],\"facet\":{\"geo\":{\"type\":\"terms\",\"field\":\"${geo:geohash_2}\",\"limit\":2000,\"mincount\":1,\"sort\":{\"count\":\"desc\"},\"facet\":{\"terms\":{\"type\":\"terms\",\"field\":\"${term:species_category}\",\"limit\":2000,\"mincount\":1,\"sort\":{\"count\":\"desc\"}}}}}}"
      }
    },
    "/pathGraphdata": {
      "name": "/pathGraphdata",
      "class": "solr.SearchHandler",
      "defaults": {
        "echoParams": "none",
        "df": "text"
      },
    "invariants": {
        "wt": "json",
        "json.nl": "map",
        "rows": 0,
        "facet": "true",
        //DKDK VB-8390 infection_status_s:* to (present OR equivocal)
        "json": "{\"filter\":[\"bundle:pop_sample_phenotype\",\"phenotype_type_s:\\\"infection status\\\"\",\"infection_status_s:*\",\"has_geodata:true\",\"${date_resolution}:*\"],\"facet\":{\"term\":{\"type\":\"terms\",\"limit\":${termLimit:-1},\"field\":\"${term:species_category}\",\"facet\":{\"collection_dates\":{\"type\":\"terms\",\"limit\":2000,\"sort\":\"index\",\"field\":\"${date_resolution:collection_day_s}\",\"facet\":{\"infected\":{\"type\":\"query\",\"q\":\"infection_status_s:(present OR equivocal)\",\"facet\":{\"pathogen\":{\"type\":\"terms\",\"field\":\"infection_source_s\"}}}}}}}}}"
      }
    },
    "/pathMarkerYearRange": {
      "name": "/pathMarkerYearRange",
      "class": "solr.SearchHandler",
      "defaults": {
        "echoParams": "none",
        "df": "text"
      },
      "invariants": {
        "wt": "json",
        "json.nl": "map",
        "rows": 0,
        "stats": "true",
        "stats.field": "collection_date",
        "facet.sort": "index",
        "facet.limit": "-1",
        "facet.mincount": "1",
        "facet": "true",
        "json": "{\"filter\":[\"bundle:pop_sample_phenotype\",\"phenotype_type_s:\\\"infection status\\\"\",\"infection_status_s:*\",\"has_geodata:true\"],\"facet\":{\"term\":{\"type\":\"terms\",\"limit\":-1,\"field\":\"${term:species_category}\"}}}",
        "json.facet": "{\"collection_resolution\":{\"terms\":\"collection_date_resolution_s\"}}"
      }
    },
    "/pathExport": {
      "name": "/pathExport",
      "class": "solr.SearchHandler",
      "defaults": {
        "fl": "exp_sample_id_s,exp_sample_name_s,exp_bundle_name_s,exp_species_s,exp_sample_type_s,exp_sample_size_i,exp_label_s,exp_collection_assay_id_s,exp_collection_date_range_ss,exp_collection_protocols_ss,exp_projects_ss,exp_geo_coords_s,exp_geolocations_ss,exp_protocols_ss,exp_phenotype_type_s,exp_phenotype_value_f,exp_phenotype_value_unit_s,exp_phenotype_value_type_s,exp_infection_source_s,exp_infection_status_s,exp_tags_ss,exp_attractants_ss,exp_sex_s,exp_dev_stages_s,exp_licenses_ss,exp_citations_ss,exp_geolocation_provenance_s,exp_geolocation_precision_s"
      }, //DKDK VB-7133 adding exp_sample_name_s for pathExport
      "invariants": {
        "rq": "{!xport}",
        "wt": "xsort",
        "distrib": "false"
      },
      "appends": {
        "json": "{filter:[\"bundle:pop_sample_phenotype\",\"has_geodata:true\",\"phenotype_type_s:\\\"infection status\\\"\",\"infection_status_s:*\"]}"
      },
      "components": [ "query" ]
    },
    "/mealGeoclust": {
      "name": "/mealGeoclust",
      "class": "solr.SearchHandler",
      "defaults": {
        "echoParams": "none",
        "df": "text"
      },
      "invariants": {
        "wt": "json",
        "json.nl": "map",
        "rows": 0,
        "json": "{\"filter\":[\"bundle:pop_sample_phenotype\",\"phenotype_type_s:\\\"blood meal identification\\\"\",\"blood_meal_status_s:present\",\"blood_meal_source_s:*\",\"has_geodata:true\"],\"facet\":{\"geo\":{\"type\":\"terms\",\"field\":\"${geo:geohash_2}\",\"limit\":-1,\"mincount\":1,\"sort\":{\"count\":\"desc\"},\"facet\":{\"ltAvg\":\"avg(geo_coords_ll_0_coordinate)\",\"ltMin\":\"min(geo_coords_ll_0_coordinate)\",\"ltMax\":\"max(geo_coords_ll_0_coordinate)\",\"lnAvg\":\"avg(geo_coords_ll_1_coordinate)\",\"lnMin\":\"min(geo_coords_ll_1_coordinate)\",\"lnMax\":\"max(geo_coords_ll_1_coordinate)\",atomicCount:\"unique(${geomax:geohash_7})\",\"term\":{\"type\":\"terms\",\"field\":\"${term:blood_meal_source_s}\",\"limit\":-1,\"mincount\":1}}}}}"
      }
    },
    "/mealPalette": {
      "name": "/mealPalette",
      "class": "solr.SearchHandler",
      "defaults": {
        "echoParams": "none",
        "df": "text"
      },
      "invariants": {
        "wt": "json",
        "json.nl": "map",
        "rows": 0,
        "json": "{\"filter\":[\"bundle:pop_sample_phenotype\",\"phenotype_type_s:\\\"blood meal identification\\\"\",\"blood_meal_status_s:present\",\"blood_meal_source_s:*\",\"has_geodata:true\"],\"facet\":{\"geo\":{\"type\":\"terms\",\"field\":\"${geo:geohash_2}\",\"limit\":2000,\"mincount\":1,\"sort\":{\"count\":\"desc\"},\"facet\":{\"terms\":{\"type\":\"terms\",\"field\":\"${term:species_category}\",\"limit\":2000,\"mincount\":1,\"sort\":{\"count\":\"desc\"}}}}}}"
      }
    },
    "/mealGraphdata": {
      "name": "/mealGraphdata",
      "class": "solr.SearchHandler",
      "defaults": {
        "echoParams": "none",
        "df": "text"
      },
    "invariants": {
        "wt": "json",
        "json.nl": "map",
        "rows": 0,
        "facet": "true",
        "json": "{\"filter\":[\"bundle:pop_sample_phenotype\",\"phenotype_type_s:\\\"blood meal identification\\\"\",\"blood_meal_status_s:present\",\"blood_meal_source_s:*\",\"has_geodata:true\",\"${date_resolution}:*\"],\"facet\":{\"term\":{\"type\":\"terms\",\"limit\":${termLimit:-1},\"field\":\"${term:species_category}\",\"facet\":{\"collection_dates\":{\"type\":\"terms\",\"limit\":2000,\"sort\":\"index\",\"field\":\"${date_resolution:collection_day_s}\",\"facet\":{\"present\":{\"type\":\"query\",\"q\":\"blood_meal_status_s:present\",\"facet\":{\"bloodmeal\":{\"type\":\"terms\",\"field\":\"blood_meal_source_s\"}}}}}}}}}"
      }
    },
    "/mealMarkerYearRange": {
      "name": "/mealMarkerYearRange",
      "class": "solr.SearchHandler",
      "defaults": {
        "echoParams": "none",
        "df": "text"
      },
      "invariants": {
        "wt": "json",
        "json.nl": "map",
        "rows": 0,
        "stats": "true",
        "stats.field": "collection_date",
        "facet.sort": "index",
        "facet.limit": "-1",
        "facet.mincount": "1",
        "facet": "true",
        "json": "{\"filter\":[\"bundle:pop_sample_phenotype\",\"phenotype_type_s:\\\"blood meal identification\\\"\",\"blood_meal_status_s:present\",\"has_geodata:true\"],\"facet\":{\"term\":{\"type\":\"terms\",\"limit\":-1,\"field\":\"${term:species_category}\"}}}",
        "json.facet": "{\"collection_resolution\":{\"terms\":\"collection_date_resolution_s\"}}"
      }
    },
    "/mealExport": {
      "name": "/mealExport",
      "class": "solr.SearchHandler",
      "defaults": {
        "fl": "exp_sample_id_s,exp_bundle_name_s,exp_species_s,exp_sample_type_s,exp_sample_size_i,exp_label_s,exp_collection_assay_id_s,exp_collection_date_range_ss,exp_collection_protocols_ss,exp_projects_ss,exp_geo_coords_s,exp_geolocations_ss,exp_protocols_ss,exp_phenotype_type_s,exp_phenotype_value_f,exp_phenotype_value_unit_s,exp_phenotype_value_type_s,exp_blood_meal_source_s,exp_blood_meal_status_s,exp_tags_ss,exp_attractants_ss,exp_sex_s,exp_dev_stages_s,exp_licenses_ss,exp_citations_ss,exp_geolocation_provenance_s,exp_geolocation_precision_s"
      },
      "invariants": {
        "rq": "{!xport}",
        "wt": "xsort",
        "distrib": "false"
      },
      "appends": {
        "json": "{filter:[\"bundle:pop_sample_phenotype\",\"has_geodata:true\",\"phenotype_type_s:\\\"blood meal identification\\\"\",\"blood_meal_status_s:present\"]}"
      },
      "components": [ "query" ]
    }
  }
}



